{
  "main.css": "static/css/main.685e681f.css",
  "main.css.map": "static/css/main.685e681f.css.map",
  "main.js": "static/js/main.13abb7d1.js",
  "main.js.map": "static/js/main.13abb7d1.js.map",
  "static\\media\\color.png": "static/media/color.c7a33805.png",
  "static\\media\\line.gif": "static/media/line.567f5738.gif",
  "static\\media\\primeicons.eot": "static/media/primeicons.82643753.eot",
  "static\\media\\primeicons.svg": "static/media/primeicons.61ad442c.svg",
  "static\\media\\primeicons.ttf": "static/media/primeicons.578adf24.ttf",
  "static\\media\\primeicons.woff": "static/media/primeicons.7b38afd8.woff",
  "static\\media\\roboto-v15-latin-regular.eot": "static/media/roboto-v15-latin-regular.9f916e33.eot",
  "static\\media\\roboto-v15-latin-regular.svg": "static/media/roboto-v15-latin-regular.5e809c17.svg",
  "static\\media\\roboto-v15-latin-regular.ttf": "static/media/roboto-v15-latin-regular.38861cba.ttf",
  "static\\media\\roboto-v15-latin-regular.woff": "static/media/roboto-v15-latin-regular.16e1d930.woff",
  "static\\media\\roboto-v15-latin-regular.woff2": "static/media/roboto-v15-latin-regular.7e367be0.woff2"
}